{"page":1,"total_results":9856,"total_pages":493,"results":[{"vote_count":4594,"id":211672,"video":false,"vote_average":6.4,"title":"Minions","popularity":771.628957,"poster_path":"\/q0R4crx2SehcEEQEkYObktdeFy.jpg","original_language":"en","original_title":"Minions","genre_ids":[10751,16,12,35],"backdrop_path":"\/uX7LXnsC7bZJZjn048UCOwkPXWJ.jpg","adult":false,"overview":"Minions Stuart, Kevin and Bob are recruited by Scarlet Overkill, a super-villain who, alongside her inventor husband Herb, hatches a plot to take over the world.","release_date":"2015-06-17"},{"vote_count":1077,"id":346364,"video":false,"vote_average":7.5,"title":"It","popularity":711.257254,"poster_path":"\/9E2y5Q7WlCVNEhP5GiVTjhEhx1o.jpg","original_language":"en","original_title":"It","genre_ids":[12,18,27],"backdrop_path":"\/tcheoA2nPATCm2vvXw2hVQoaEFD.jpg","adult":false,"overview":"In a small town in Maine, seven children known as The Losers Club come face to face with life problems, bullies and a monster that takes the shape of a clown called Pennywise.","release_date":"2017-09-05"},{"vote_count":5309,"id":321612,"video":false,"vote_average":6.8,"title":"Beauty and the Beast","popularity":641.878735,"poster_path":"\/tWqifoYuwLETmmasnGHO7xBjEtt.jpg","original_language":"en","original_title":"Beauty and the Beast","genre_ids":[10751,14,10749],"backdrop_path":"\/6aUWe0GSl69wMTSWWexsorMIvwU.jpg","adult":false,"overview":"A live-action adaptation of Disney's version of the classic 'Beauty and the Beast' tale of a cursed prince and a beautiful young woman who helps him break the spell.","release_date":"2017-03-16"},{"vote_count":4609,"id":297762,"video":false,"vote_average":7.2,"title":"Wonder Woman","popularity":524.742241,"poster_path":"\/imekS7f1OuHyUP2LAiTEM0zBzUz.jpg","original_language":"en","original_title":"Wonder Woman","genre_ids":[28,12,14],"backdrop_path":"\/6iUNJZymJBMXXriQyFZfLAKnjO6.jpg","adult":false,"overview":"An Amazon princess comes to the world of Man to become the greatest of the female superheroes.","release_date":"2017-05-30"},{"vote_count":6064,"id":263115,"video":false,"vote_average":7.6,"title":"Logan","popularity":350.551841,"poster_path":"\/gGBu0hKw9BGddG8RkRAMX7B6NDB.jpg","original_language":"en","original_title":"Logan","genre_ids":[28,18,878],"backdrop_path":"\/5pAGnkFYSsFJ99ZxDIYnhQbQFXs.jpg","adult":false,"overview":"In the near future, a weary Logan cares for an ailing Professor X in a hideout on the Mexican border. But Logan's attempts to hide from the world and his legacy are upended when a young mutant arrives, pursued by dark forces.","release_date":"2017-02-28"},{"vote_count":4522,"id":283995,"video":false,"vote_average":7.6,"title":"Guardians of the Galaxy Vol. 2","popularity":340.828613,"poster_path":"\/y4MBh0EjBlMuOzv9axM4qJlmhzz.jpg","original_language":"en","original_title":"Guardians of the Galaxy Vol. 2","genre_ids":[28,12,35,878],"backdrop_path":"\/aJn9XeesqsrSLKcHfHP4u5985hn.jpg","adult":false,"overview":"The Guardians must fight to keep their newfound family together as they unravel the mysteries of Peter Quill's true parentage.","release_date":"2017-04-19"},{"vote_count":3185,"id":315635,"video":false,"vote_average":7.3,"title":"Spider-Man: Homecoming","popularity":329.73536,"poster_path":"\/c24sv2weTHPsmDa7jEMN0m2P3RT.jpg","original_language":"en","original_title":"Spider-Man: Homecoming","genre_ids":[28,12,35,878],"backdrop_path":"\/vc8bCGjdVp0UbMNLzHnHSLRbBWQ.jpg","adult":false,"overview":"Following the events of Captain America: Civil War, Peter Parker, with the help of his mentor Tony Stark, tries to balance his life as an ordinary high school student in Queens, New York City, with fighting crime as his superhero alter ego Spider-Man as a new threat, the Vulture, emerges.","release_date":"2017-07-05"},{"vote_count":1836,"id":324852,"video":false,"vote_average":6.2,"title":"Despicable Me 3","popularity":278.390813,"poster_path":"\/5qcUGqWoWhEsoQwNUrtf3y3fcWn.jpg","original_language":"en","original_title":"Despicable Me 3","genre_ids":[28,16,12,10751,35],"backdrop_path":"\/ftRkFtAGuHngHnLiOxktq0aCVMF.jpg","adult":false,"overview":"Gru and his wife Lucy must stop former '80s child star Balthazar Bratt from achieving world domination.","release_date":"2017-06-15"},{"vote_count":2506,"id":166426,"video":false,"vote_average":6.6,"title":"Pirates of the Caribbean: Dead Men Tell No Tales","popularity":266.238814,"poster_path":"\/xbpSDU3p7YUGlu9Mr6Egg2Vweto.jpg","original_language":"en","original_title":"Pirates of the Caribbean: Dead Men Tell No Tales","genre_ids":[12,28,14,35],"backdrop_path":"\/tZvdyLP2F6x2TTuh292ceH87qZT.jpg","adult":false,"overview":"Thrust into an all-new adventure, a down-on-his-luck Capt. Jack Sparrow feels the winds of ill-fortune blowing even more strongly when deadly ghost sailors led by his old nemesis, the evil Capt. Salazar, escape from the Devil's Triangle. Jack's only hope of survival lies in seeking out the legendary Trident of Poseidon, but to find it, he must forge an uneasy alliance with a brilliant and beautiful astronomer and a headstrong young man in the British navy.","release_date":"2017-05-23"},{"vote_count":664,"id":390043,"video":false,"vote_average":6.6,"title":"The Hitman's Bodyguard","popularity":246.687522,"poster_path":"\/5CGjlz2vyBhW5xHW4eNOZIdgzYq.jpg","original_language":"en","original_title":"The Hitman's Bodyguard","genre_ids":[28,35],"backdrop_path":"\/7KsqfXDECZMryX1Rv4RKsT7SIjQ.jpg","adult":false,"overview":"The world's top bodyguard gets a new client, a hit man who must testify at the International Court of Justice. They must put their differences aside and work together to make it to the trial on time.","release_date":"2017-08-16"},{"vote_count":2532,"id":126889,"video":false,"vote_average":5.7,"title":"Alien: Covenant","popularity":241.042155,"poster_path":"\/zecMELPbU5YMQpC81Z8ImaaXuf9.jpg","original_language":"en","original_title":"Alien: Covenant","genre_ids":[27,878,53],"backdrop_path":"\/kMU8trT43p5LFoJ4plIySMOsZ1T.jpg","adult":false,"overview":"Bound for a remote planet on the far side of the galaxy, the crew of the colony ship 'Covenant' discovers what is thought to be an uncharted paradise, but is actually a dark, dangerous world – which has its sole inhabitant the 'synthetic', David, survivor of the doomed Prometheus expedition.","release_date":"2017-05-09"},{"vote_count":1655,"id":339846,"video":false,"vote_average":6,"title":"Baywatch","popularity":203.509933,"poster_path":"\/6HE4xd8zloDqmjMZuhUCCw2UcY1.jpg","original_language":"en","original_title":"Baywatch","genre_ids":[28,35],"backdrop_path":"\/t6TL7V9IsT4Ktx6YO8b1UYj3agd.jpg","adult":false,"overview":"Devoted lifeguard Mitch Buchannon butts heads with a brash new recruit. Together, they uncover a local criminal plot that threatens the future of the Bay.","release_date":"2017-05-12"},{"vote_count":1669,"id":339403,"video":false,"vote_average":7.2,"title":"Baby Driver","popularity":202.237489,"poster_path":"\/dN9LbVNNZFITwfaRjl4tmwGWkRg.jpg","original_language":"en","original_title":"Baby Driver","genre_ids":[28,80],"backdrop_path":"\/goCvLSUFz0p7k8R10Hv4CVh3EQv.jpg","adult":false,"overview":"After being coerced into working for a crime boss, a young getaway driver finds himself taking part in a heist doomed to fail.","release_date":"2017-06-28"},{"vote_count":5661,"id":284052,"video":false,"vote_average":7.1,"title":"Doctor Strange","popularity":200.083879,"poster_path":"\/4PiiNGXj1KENTmCBHeN6Mskj2Fq.jpg","original_language":"en","original_title":"Doctor Strange","genre_ids":[28,12,14,878],"backdrop_path":"\/tFI8VLMgSTTU38i8TIsklfqS9Nl.jpg","adult":false,"overview":"After his career is destroyed, a brilliant but arrogant surgeon gets a new lease on life when a sorcerer takes him under his wing and trains him to defend the world against evil.","release_date":"2016-10-25"},{"vote_count":2488,"id":374720,"video":false,"vote_average":7.4,"title":"Dunkirk","popularity":194.105732,"poster_path":"\/bOXBV303Fgkzn2K4FeKDc0O31q4.jpg","original_language":"en","original_title":"Dunkirk","genre_ids":[28,18,36,53,10752],"backdrop_path":"\/fudEG1VUWuOqleXv6NwCExK0VLy.jpg","adult":false,"overview":"The miraculous evacuation of Allied soldiers from Belgium, Britain, Canada and France, who were cut off and surrounded by the German army from the beaches and harbor of Dunkirk, France, between May 26th and June 4th 1940, during the Battle of France in World War II.","release_date":"2017-07-19"},{"vote_count":5408,"id":259316,"video":false,"vote_average":7.2,"title":"Fantastic Beasts and Where to Find Them","popularity":185.596777,"poster_path":"\/gri0DDxsERr6B2sOR1fGLxLpSLx.jpg","original_language":"en","original_title":"Fantastic Beasts and Where to Find Them","genre_ids":[12,10751,14],"backdrop_path":"\/6I2tPx6KIiBB4TWFiWwNUzrbxUn.jpg","adult":false,"overview":"In 1926, Newt Scamander arrives at the Magical Congress of the United States of America with a magically expanded briefcase, which houses a number of dangerous creatures and their habitats. When the creatures escape from the briefcase, it sends the American wizarding authorities after Newt, and threatens to strain even further the state of magical and non-magical relations.","release_date":"2016-11-16"},{"vote_count":5537,"id":329865,"video":false,"vote_average":7.2,"title":"Arrival","popularity":182.979004,"poster_path":"\/hLudzvGfpi6JlwUnsNhXwKKg4j.jpg","original_language":"en","original_title":"Arrival","genre_ids":[53,18,878,9648],"backdrop_path":"\/yIZ1xendyqKvY3FGeeUYUd5X9Mm.jpg","adult":false,"overview":"Taking place after alien crafts land around the world, an expert linguist is recruited by the military to determine whether they come in peace or are a threat.","release_date":"2016-11-10"},{"vote_count":938,"id":396422,"video":false,"vote_average":6.4,"title":"Annabelle: Creation","popularity":171.882175,"poster_path":"\/tb86j8jVCVsdZnzf8I6cIi65IeM.jpg","original_language":"en","original_title":"Annabelle: Creation","genre_ids":[53,27],"backdrop_path":"\/o8u0NyEigCEaZHBdCYTRfXR8U4i.jpg","adult":false,"overview":"Several years after the tragic death of their little girl, a dollmaker and his wife welcome a nun and several girls from a shuttered orphanage into their home, soon becoming the target of the dollmaker's possessed creation, Annabelle.","release_date":"2017-08-03"},{"vote_count":4273,"id":381288,"video":false,"vote_average":7,"title":"Split","popularity":171.859427,"poster_path":"\/rXMWOZiCt6eMX22jWuTOSdQ98bY.jpg","original_language":"en","original_title":"Split","genre_ids":[27,53],"backdrop_path":"\/4G6FNNLSIVrwSRZyFs91hQ3lZtD.jpg","adult":false,"overview":"Though Kevin has evidenced 23 personalities to his trusted psychiatrist, Dr. Fletcher, there remains one still submerged who is set to materialize and dominate all the others. Compelled to abduct three teenage girls led by the willful, observant Casey, Kevin reaches a war for survival among all of those contained within him — as well as everyone around him — as the walls between his compartments shatter apart.","release_date":"2016-11-15"},{"vote_count":4956,"id":330459,"video":false,"vote_average":7.4,"title":"Rogue One: A Star Wars Story","popularity":161.913733,"poster_path":"\/qjiskwlV1qQzRCjpV0cL9pEMF9a.jpg","original_language":"en","original_title":"Rogue One: A Star Wars Story","genre_ids":[28,12,878],"backdrop_path":"\/tZjVVIYXACV4IIIhXeIM59ytqwS.jpg","adult":false,"overview":"A rogue band of resistance fighters unite for a mission to steal the Death Star plans and bring a new hope to the galaxy.","release_date":"2016-12-14"}]}